{"errorMessage":null,"result":{"isEnable":true,"pageBean":{"currentPage":1,"pageSize":10,"totalRows":120,"startRow":0,"totalPage":12,"items":[{"customerid":2116573315,"commercialid":810019565,"memberid":1013295037,"groupid":999999,"name":"孙大设备","status":0,"modifydatetime":"2017-05-19 20:51:19","sex":"0","mobile":"18871852855","address":"","birthday":"1999-05-19","email":"","createdatetime":"2017-05-19 20:51:19","invoicetitle":"","ctype":"0","source":"1","synflag":"9469f2652d35480eb7547f5a95ba7715","userid":"","brandid":12566,"environmenthobby":"","interest":"","memo":"","isDisable":2,"updatorId":99999999,"loginType":0,"loginId":"18871852855","customerMainId":2116573315,"bindFlag":1,"sourceName":"Pad","levelName":"-","commercialName":"客如云电商部1号演示门店","updatorName":"admin"},{"customerid":2116573132,"commercialid":810019565,"memberid":1013294956,"groupid":1004237,"name":"小红","status":0,"modifydatetime":"2017-05-19 20:49:00","sex":"0","mobile":"18871483255","address":"","birthday":"1990-09-01","createdatetime":"2017-05-19 20:49:00","invoicetitle":"","ctype":"0","source":"1","synflag":"efff6ebd478746688ac46ceda7d30d9f","isneedconfirm":0,"isacceptsubscription":0,"consumepassword":"E10ADC3949BA59ABBE56E057F20F883E","userid":"88888981819","levelid":14552,"brandid":12566,"upgradetime":"2017-05-19 20:49:00","upgradecommercialid":"810019565","createuser":"admin","environmenthobby":"0005","interest":"","memo":"","isDisable":2,"updatorId":99999999,"loginType":0,"loginId":"18871483255","customerMainId":2116573132,"bindFlag":1,"sourceName":"Pad","level":1,"levelName":"普通会员","commercialName":"客如云电商部1号演示门店","updatorName":"admin"},{"customerid":2116367066,"commercialid":810019565,"memberid":1013178810,"groupid":999999,"name":"liwenchao","status":0,"modifydatetime":"2017-05-19 17:58:52","sex":"1","mobile":"18871583185","address":"","birthday":"1999-05-17","email":"","createdatetime":"2017-05-17 14:14:29","invoicetitle":"","ctype":"0","source":"15","synflag":"b5b29681d5f24b29a0668ab880523254","consumepassword":"21972878276DEEB5A1B5131E4EED9D59","userid":"88889037781","levelid":16128,"brandid":12566,"upgradetime":"2017-05-17 14:14:29","upgradecommercialid":"810019565","environmenthobby":"","interest":"","memo":"","isDisable":2,"updatorId":88889004539,"loginType":0,"loginId":"18871583185","customerMainId":2116367066,"bindFlag":1,"sourceName":"Os Mobile","level":3,"levelName":"钻石会员","commercialName":"客如云电商部1号演示门店","updatorName":"qzy"},{"customerid":2116297950,"commercialid":810019565,"memberid":1013139093,"groupid":999999,"name":"李嘉潼","status":0,"modifydatetime":"2017-05-16 17:53:23","sex":"1","mobile":"18871483189","address":"","birthday":"1999-05-16","createdatetime":"2017-05-16 17:50:45","invoicetitle":"","ctype":"0","source":"1","synflag":"7bde3556d56a4d8fa36b640f38e734cd","isneedconfirm":0,"isacceptsubscription":0,"consumepassword":"E10ADC3949BA59ABBE56E057F20F883E","userid":"88888981819","levelid":14552,"brandid":12566,"upgradetime":"2017-05-16 17:50:45","upgradecommercialid":"810019565","createuser":"admin","environmenthobby":"","interest":"","memo":"","isDisable":2,"updatorId":99999999,"loginType":0,"loginId":"18871483189","customerMainId":2116297950,"bindFlag":1,"sourceName":"Pad","level":1,"levelName":"普通会员","commercialName":"客如云电商部1号演示门店","updatorName":"admin"},{"customerid":2116294521,"commercialid":810019565,"memberid":1013137156,"groupid":999999,"name":"陈","status":0,"modifydatetime":"2017-05-16 17:06:55","sex":"0","mobile":"15235485215","address":"","birthday":"1990-09-11","createdatetime":"2017-05-16 17:06:56","invoicetitle":"","ctype":"0","source":"1","synflag":"66ff0f5142b24a7db4835c8c23d10cdc","isneedconfirm":0,"isacceptsubscription":0,"consumepassword":"E10ADC3949BA59ABBE56E057F20F883E","userid":"88888981819","levelid":14552,"brandid":12566,"upgradetime":"2017-05-16 17:06:56","upgradecommercialid":"810019565","createuser":"admin","environmenthobby":"0002,0005,0004","interest":"","memo":"","isDisable":2,"updatorId":99999999,"loginType":0,"loginId":"15235485215","customerMainId":2116294521,"bindFlag":1,"sourceName":"Pad","level":1,"levelName":"普通会员","commercialName":"客如云电商部1号演示门店","updatorName":"admin"},{"customerid":2116294393,"commercialid":810019565,"memberid":1013137079,"groupid":999999,"name":"林","status":0,"modifydatetime":"2017-05-16 17:04:49","sex":"1","mobile":"15245214852","address":"","birthday":"1999-05-16","email":"","createdatetime":"2017-05-16 17:04:49","invoicetitle":"","ctype":"0","source":"1","synflag":"07f95ab7168841109f56c98f802a9d15","userid":"88888981819","brandid":12566,"environmenthobby":"婴儿椅","interest":"","memo":"","isDisable":2,"updatorId":88888981819,"loginType":0,"loginId":"15245214852","customerMainId":2116294393,"bindFlag":1,"sourceName":"Pad","levelName":"-","commercialName":"客如云电商部1号演示门店","updatorName":"admin"},{"customerid":2116294202,"commercialid":810019565,"memberid":1013136969,"groupid":999999,"name":"林","status":0,"modifydatetime":"2017-05-16 17:01:48","sex":"0","mobile":"15248512472","address":"","birthday":"1999-05-16","email":"","createdatetime":"2017-05-16 17:01:48","invoicetitle":"","ctype":"0","source":"1","synflag":"c2ba18985f3c452fb8e30d089ee865eb","userid":"","brandid":12566,"environmenthobby":"","interest":"","memo":"","isDisable":2,"updatorId":99999999,"loginType":0,"loginId":"15248512472","customerMainId":2116294202,"bindFlag":1,"sourceName":"Pad","levelName":"-","commercialName":"客如云电商部1号演示门店","updatorName":"admin"},{"customerid":2116290378,"commercialid":810019565,"memberid":1013133826,"groupid":999999,"name":"张三","status":0,"modifydatetime":"2017-05-16 16:33:09","sex":"1","mobile":"13612312312","address":"","birthday":"1990-09-01","createdatetime":"2017-05-16 16:33:10","invoicetitle":"","ctype":"0","source":"1","synflag":"4a6c04493aaf46d3b5e85c0ea1b52f29","isneedconfirm":0,"isacceptsubscription":0,"consumepassword":"E10ADC3949BA59ABBE56E057F20F883E","userid":"88888981819","levelid":14552,"brandid":12566,"upgradetime":"2017-05-16 16:33:10","upgradecommercialid":"810019565","createuser":"admin","environmenthobby":"","interest":"","memo":"","isDisable":2,"updatorId":99999999,"loginType":0,"loginId":"13612312312","customerMainId":2116290378,"bindFlag":1,"sourceName":"Pad","level":1,"levelName":"普通会员","commercialName":"客如云电商部1号演示门店","updatorName":"admin"},{"customerid":2116205199,"commercialid":810019565,"memberid":1012343247,"groupid":999999,"name":"周义星","status":0,"modifydatetime":"2017-05-19 18:02:13","sex":"1","mobile":"15623451496","address":"","birthday":"1990-09-01","createdatetime":"2017-05-15 16:30:23","invoicetitle":"","ctype":"0","source":"1","synflag":"da58b4345a814c229e9dfbb248bfb364","isneedconfirm":0,"isacceptsubscription":0,"consumepassword":"24FA7C1EAF85172841FADC90B6A754FC","userid":"88888981819","levelid":14552,"brandid":12566,"upgradetime":"2017-05-15 16:30:23","upgradecommercialid":"810019565","createuser":"admin","environmenthobby":"","interest":"","memo":"","isDisable":2,"updatorId":99999999,"loginType":0,"loginId":"15623451496","customerMainId":2116205199,"bindFlag":1,"sourceName":"Pad","level":1,"levelName":"普通会员","commercialName":"客如云电商部1号演示门店","updatorName":"admin"},{"customerid":2116136274,"commercialid":810019565,"memberid":1013044293,"groupid":999999,"name":"一王王王","status":0,"modifydatetime":"2017-05-14 16:16:29","sex":"1","mobile":"13429856866","address":"","birthday":"1999-05-14","email":"","createdatetime":"2017-05-14 16:16:29","invoicetitle":"","ctype":"0","source":"1","synflag":"ed1d1aa892354758a1b0018080590074","userid":"","brandid":12566,"environmenthobby":"","interest":"","memo":"","isDisable":2,"updatorId":99999999,"loginType":0,"loginId":"13429856866","customerMainId":2116136274,"bindFlag":1,"sourceName":"Pad","levelName":"-","commercialName":"客如云电商部1号演示门店","updatorName":"admin"}],"brandId":12566,"loginType":0,"listType":1,"showPageNums":[1,2,3,4,5,6,7,8,9,10]}},"logMessageId":"OL6d1f9bf1ca6b4ddb8cdac708bbe8f136","code":1}